firstName,lastName,employeeNumber,department,part
Tony,Adams,100184,Plumbing,41082
Steven,Stewart,100301,Plumbing,18307
Edgar,Craig,100175,Electrical,92722
Bruce,Clark,100263,Plumbing,36808
Spike,Scott,100231,HVAC,65646
Edgar,Stewart,100275,Appliance,17103
Tyler,Harrison,100247,Plumbing,89764
Ryan,Armstrong,100254,Plumbing,59954
Henry,Hawkins,100261,Roofing,24953
Annabella,Smith,100214,Appliance,82570
Sydney,Holmes,100138,Electrical,35648
Lana,Russell,100244,Electrical,59585
Miley,Morgan,100135,Roofing,97549
Jacob,Allen,100203,Electrical,57736
Dexter,Harper,100294,HVAC,83667
Naomi,Martin,100286,Appliance,48979
Violet,Roberts,100250,Electrical,84299
Dale,Stewart,100166,HVAC,78061
Catherine,Turner,100316,Appliance,46088
Eddy,Harper,100255,Appliance,68820
Hailey,Mason,100319,Plumbing,41711
Oscar,Parker,100262,HVAC,45523
Sawyer,Stevens,100181,Plumbing,35405
Natalie,Howard,100180,Plumbing,83135
Rosie,Moore,100183,Electrical,73449
Alen,Cameron,100287,Electrical,93176
Frederick,Perry,100267,Plumbing,59565
Kristian,Russell,100213,HVAC,59415
Max,Lloyd,100152,Plumbing,36361
Edwin,Dixon,100127,Electrical,22461
Olivia,Morrison,100246,Roofing,37342
Frederick,Payne,100144,HVAC,51791
Edgar,Elliott,100153,Plumbing,83360
Brad,Cole,100170,Appliance,33169
Jessica,Brooks,100130,Appliance,89962
Adrianna,Thomas,100163,Electrical,23937
Spike,Thomas,100302,Appliance,51857
Vincent,Miller,100257,Plumbing,46460
Carlos,Gray,100230,Roofing,10328
Alfred,Kelley,100308,Plumbing,14021
Roland,Harper,100229,Plumbing,63079
Max,Scott,100151,Roofing,74636
Naomi,Clark,100227,Plumbing,21747
Henry,Taylor,100201,Appliance,87481
Amber,Holmes,100243,HVAC,34569
Emily,Phillips,100238,HVAC,67444
Oliver,Dixon,100314,Electrical,73938
Preston,Moore,100320,Roofing,34620
James,Morrison,100177,Appliance,35443
Olivia,Henderson,100234,Appliance,33631
Grace,Dixon,100209,Appliance,75269
Joyce,Parker,100237,HVAC,49156
Jordan,Hunt,100182,Plumbing,61581
Alexia,Walker,100160,Appliance,98190
Dainton,Parker,100268,Appliance,86680
William,Holmes,100145,Electrical,90667
Tony,Jones,100176,Plumbing,15791
Brad,Harrison,100162,Electrical,10260
Ned,Owens,100309,Electrical,24539
Lana,Elliott,100264,Appliance,68649
Richard,Casey,100312,Appliance,76250
Victoria,Richardson,100159,Plumbing,84029
Alfred,Russell,100222,Appliance,46823
Evelyn,Thomas,100270,Appliance,88343
Patrick,Chapman,100225,Appliance,24999
Fenton,Cameron,100211,HVAC,15124
Robert,Douglas,100239,Plumbing,39408
Abigail,Higgins,100226,HVAC,28862
Justin,Murray,100155,Appliance,57154
Camila,Wells,100245,Plumbing,67979
Chloe,Carroll,100179,HVAC,97037
Cherry,Baker,100290,Appliance,52252
Miley,Sullivan,100242,HVAC,70609
Edwin,Hall,100310,Roofing,85436
Abraham,Morris,100219,HVAC,16566
Alisa,Kelly,100307,Appliance,78086
Alen,Chapman,100277,Appliance,55482
Savana,Henderson,100221,Roofing,10448
Tara,Bennett,100185,Roofing,68472
Annabella,Edwards,100142,HVAC,31944
Charlotte,Murphy,100215,HVAC,82352
Mike,Baker,100134,Appliance,81191
Patrick,Scott,100218,Plumbing,46264
Hailey,Armstrong,100195,Appliance,17694
Lenny,Kelley,100233,Roofing,98382
Lucas,Ryan,100178,Roofing,85074
Cherry,Ryan,100317,Roofing,52477
Elian,Baker,100283,HVAC,12896
Joyce,Cole,100192,Appliance,80852
Lilianna,Sullivan,100315,Appliance,84220
Kristian,Barrett,100220,Roofing,94179
Kellan,Jones,100206,Electrical,83828
Antony,Cooper,100304,Roofing,68340
Mike,Elliott,100154,HVAC,44828
Garry,Taylor,100141,Electrical,90595
Carlos,Cooper,100322,Roofing,51654
Maya,Riley,100251,Electrical,70792
Owen,Riley,100165,Plumbing,95482
Arnold,Crawford,100298,Electrical,60336
Caroline,Bennett,100297,HVAC,24064
